<?xml version="1.0" encoding="windows-1252" standalone="no"?>
<!DOCTYPE log SYSTEM "logger.dtd">
<log>
<record>
  <date>2022-09-19T11:24:28.749486Z</date>
  <millis>1663586668749</millis>
  <nanos>486000</nanos>
  <sequence>0</sequence>
  <logger>global</logger>
  <level>WARNING</level>
  <class>logpackage.LogClass</class>
  <method>logMethod</method>
  <thread>1</thread>
  <message>warning message</message>
</record>
<record>
  <date>2022-09-19T11:24:28.953488Z</date>
  <millis>1663586668953</millis>
  <nanos>488000</nanos>
  <sequence>1</sequence>
  <logger>global</logger>
  <level>INFO</level>
  <class>logpackage.LogClass</class>
  <method>logMethod</method>
  <thread>1</thread>
  <message>info message</message>
</record>
<record>
  <date>2022-09-19T11:24:28.957242100Z</date>
  <millis>1663586668957</millis>
  <nanos>242100</nanos>
  <sequence>2</sequence>
  <logger>global</logger>
  <level>INFO</level>
  <class>logpackage.LogClass</class>
  <method>logMethod</method>
  <thread>1</thread>
  <message>data added</message>
</record>
<record>
  <date>2022-09-19T11:24:28.959771400Z</date>
  <millis>1663586668959</millis>
  <nanos>771400</nanos>
  <sequence>3</sequence>
  <logger>global</logger>
  <level>INFO</level>
  <class>logpackage.LogClass</class>
  <method>logMethod</method>
  <thread>1</thread>
  <message>tasks added</message>
</record>
</log>
